id;nama_video;status;device;path_file
1;sexy Drive;quantify transmitter;iterate;Chicken TCP
2;discrete maroon;Saint Helena Pound;cross-platform;architectures
3;Licensed Global Auto Loan Account;moderator;Diverse Integrated;New Israeli Sheqel Beauty haptic
4;Functionality transmit;olive Garden pixel;portal Bike;compress
5;transparent Multi-tiered hard drive;Vision-oriented initiative;impactful intangible;Cheese
6;Belarus architect challenge;Cotton process improvement;UIC-Franc Micronesia panel;calculate
7;Re-contextualized indexing Plastic;Russian Federation Producer relationships;Georgia stable;Metal front-end Ridges
8;Investor;Stand-alone JBOD USB;Berkshire;Alaska projection Passage
9;Cliffs navigating;incentivize;rich;Mozambique
10;Strategist;Designer;Handmade projection;infrastructures
