id;nama_badan_usaha;nama_direksi;nik_direksi;email;tanggal_pengambilan;kode_konfirmasi;id_kloter;pengambilan_struk;jam_kloter;pertanyaan;jawaban;tipe_ktp;status_tiket;type_virtual;jam_layanan;no_tiket;agent;id_daftar;nama_perseorangan;nik_perseorangan;instansi;unit;jabatan;nama_pejabat;untuk_layanan;jwt_token
1;Keyboard;Practical sensor payment;Configuration Republic of Korea;Elbert_Hegmann39@gmail.com;2021-07-31;Integration magenta;56146;true;Accountability platforms Future;../fake-data/blob/hipster.txt;../fake-data/blob/hipster.txt;Gloves French Polynesia port;Licensed Keyboard;true;bypass;platforms;true;7a4ac208-3909-43b3-bba8-d644a2654f0b;Avon;Awesome embrace;Chair e-enable Auto Loan Account;service-desk;Japan Forges Strategist;integrate;Extended Granite;../fake-data/blob/hipster.txt
2;Ergonomic;clicks-and-mortar;Intelligent Rubber Car ivory;Esther_Blanda@hotmail.com;2021-07-31;synthesize;74388;false;Minnesota 24/365 Intelligent;../fake-data/blob/hipster.txt;../fake-data/blob/hipster.txt;Shore sticky Frozen;COM Baby open-source;true;fuchsia Colorado Curve;vortals leading-edge Quality;false;3cd1abaa-da66-4d35-bc8e-b16de9aec5f5;Faroe Islands Plastic;cyan;Liaison Car invoice;Tasty;Assimilated Agent;Anguilla;Malta;../fake-data/blob/hipster.txt
3;Cook Islands payment;Personal Loan Account bluetooth blue;turquoise programming;Stanford_Harvey@yahoo.com;2021-07-31;Fantastic Soft Gloves Bridge;43746;false;Practical digital;../fake-data/blob/hipster.txt;../fake-data/blob/hipster.txt;SDD Borders;Berkshire invoice Concrete;true;digital neural;South Dakota;false;8cd05b06-d9d6-46c5-9c11-6632ae0f72a9;Money Market Account;enterprise;Views Multi-layered;transmit Falkland Islands (Malvinas);optimize Operations Borders;Reactive Research;Michigan Directives;../fake-data/blob/hipster.txt
4;Marketing Granite;mindshare Georgia Quetzal;leverage Computers;Perry90@gmail.com;2021-07-31;navigate;56081;true;Fish compressing;../fake-data/blob/hipster.txt;../fake-data/blob/hipster.txt;compelling;Rubber indexing sky blue;false;clear-thinking bandwidth-monitored;Chair teal circuit;false;9967fdae-2120-4ccf-a086-130fdb90d8ac;eyeballs adapter;Orchestrator;Mobility Industrial;Hat wireless seamless;Architect;Developer Cross-group;content-based Pa'anga;../fake-data/blob/hipster.txt
5;connecting wireless;methodologies solutions;connect;Jaylan35@hotmail.com;2021-07-31;sky blue Factors;78821;false;Bahraini Dinar Tennessee;../fake-data/blob/hipster.txt;../fake-data/blob/hipster.txt;parsing 5th generation incubate;Handmade models Fundamental;false;firewall;models Czech Republic invoice;false;335b2af3-e160-4158-9bc5-4e0b792be45a;Central African Republic Pants circuit;Administrator Internal Bangladesh;copying e-commerce Kenyan Shilling;El Salvador Colon US Dollar Ergonomic Soft Gloves syndicate;Ways;El Salvador Colon US Dollar;Operations turquoise Unbranded;../fake-data/blob/hipster.txt
6;Administrator;Handmade Fresh Chair;Grocery;Clara.Rodriguez22@gmail.com;2021-07-31;Checking Account Dynamic;74499;false;solutions;../fake-data/blob/hipster.txt;../fake-data/blob/hipster.txt;TCP payment Buckinghamshire;Toys Berkshire;false;Money Market Account Senior invoice;Focused utilize;true;5c0b7607-73e8-4d30-a993-e1c6190f36d6;RAM SQL;Cambridgeshire Texas;Inlet synergies bandwidth;Spring reciprocal Customer;SMTP synergistic Right-sized;Mobility;Cheese blue;../fake-data/blob/hipster.txt
7;Analyst;Estonia Rustic Metal Keyboard;Beauty Rubber Wooden;Felicity_Kreiger87@yahoo.com;2021-07-31;Generic;69323;false;pixel;../fake-data/blob/hipster.txt;../fake-data/blob/hipster.txt;database Home;Zimbabwe Dollar;true;Taka JBOD navigating;Loaf Accountability;false;833d7eb4-791b-4148-b5d7-89e552ec20a9;Open-architected;Planner;Illinois Synchronised;maximized Handcrafted;Iowa indexing capacitor;program;website De-engineered;../fake-data/blob/hipster.txt
8;Hat copy Human;California Health;client-driven Computers program;Raymond40@gmail.com;2021-07-31;quantify;19292;true;directional Specialist Florida;../fake-data/blob/hipster.txt;../fake-data/blob/hipster.txt;Gorgeous Concrete Chicken Cape Verde Toys;orange Pants;false;mindshare;payment transmit;true;03d81ef0-36dd-41e2-8baf-3436a3df0bc2;IB Fiji Dollar open-source;customer loyalty New York Fantastic;Gloves model Fantastic Cotton Bacon;Bedfordshire;Cheese Global;Berkshire sensor 1080p;Outdoors;../fake-data/blob/hipster.txt
9;Awesome Steel Keyboard optical Plastic;Data networks;open-source;Khalil_Bauch81@yahoo.com;2021-07-31;PNG monitoring;72129;true;mobile open architecture;../fake-data/blob/hipster.txt;../fake-data/blob/hipster.txt;withdrawal auxiliary XSS;user-centric;true;deploy;Soft contextually-based;true;4ef782bb-6d7d-4a1c-9b7f-cabe1477f24e;SDD Seychelles Rupee driver;innovative bandwidth;platforms Bedfordshire;Vista Bedfordshire;aggregate;Ukraine reintermediate;Principal Handcrafted;../fake-data/blob/hipster.txt
10;Illinois Personal Loan Account;cross-platform Slovenia;global;Novella1@yahoo.com;2021-07-31;utilisation;44208;true;Kuwait;../fake-data/blob/hipster.txt;../fake-data/blob/hipster.txt;Serbian Dinar;RSS;true;Pre-emptive;web-readiness;false;a3a87677-fa80-4c08-89b3-301334036f06;disintermediate;El Salvador Colon US Dollar SMTP Multi-tiered;Buckinghamshire cross-platform;experiences Concrete Mandatory;Fantastic Cotton Ball throughput quantify;vertical Central African Republic magenta;firewall tangible;../fake-data/blob/hipster.txt
