id;nama_pelaku;email;nik;nama_perusahaan;telepon;pertanyaan;no_urut;id_sub_layanan;token_validasi;tanggal
1;programming Beauty;Tyrell_Hegmann@yahoo.com;Cross-platform;Refined Fresh Tuna Credit Card Account Danish Krone;bandwidth RSS benchmark;../fake-data/blob/hipster.txt;Licensed Frozen Ball Money Market Account matrix;2321;Plastic copying;2021-05-29
2;channels;Lee_Heathcote@hotmail.com;Associate clear-thinking indexing;withdrawal;instruction set mint green SSL;../fake-data/blob/hipster.txt;bandwidth-monitored Industrial calculate;4400;Orchestrator indigo;2021-05-29
3;Health;Jaylin.Labadie@yahoo.com;brand Solutions Concrete;parsing;Licensed;../fake-data/blob/hipster.txt;Unbranded Future Nauru;79018;Plastic Bedfordshire;2021-05-29
4;Avon solution Chad;Jonatan.Streich@yahoo.com;Money Market Account;productize Sausages;payment;../fake-data/blob/hipster.txt;generating e-business attitude-oriented;64998;Practical fuchsia;2021-05-29
5;program payment circuit;Nickolas_Hickle93@yahoo.com;Frozen Investment Account;Brand;Cliffs Berkshire;../fake-data/blob/hipster.txt;Alaska stable;76980;bypassing invoice Minnesota;2021-05-29
6;Berkshire Home;Baby.Boyle@gmail.com;empower payment transition;Customer cyan;Music toolset;../fake-data/blob/hipster.txt;Profit-focused green;73543;turquoise;2021-05-29
7;transmit Iran Senegal;Caden54@gmail.com;innovate SSL;Forks;Keyboard;../fake-data/blob/hipster.txt;Western Sahara bluetooth;57887;navigating invoice expedite;2021-05-29
8;Rapids Digitized Jamaican Dollar;Alfred30@gmail.com;Louisiana Legacy;integrate Beauty synthesize;Licensed SMS Street;../fake-data/blob/hipster.txt;Gloves;19637;Computers;2021-05-30
9;ADP;Shanna.Schoen74@yahoo.com;Small;Cambridgeshire THX;visionary redundant Mouse;../fake-data/blob/hipster.txt;THX;25811;Credit Card Account quantifying coherent;2021-05-30
10;Metal;Diana_Lakin@gmail.com;redundant;Incredible definition;Iraqi Dinar ADP Walks;../fake-data/blob/hipster.txt;tan Shoes Clothing;25690;Ergonomic Assistant;2021-05-29
