{
    "fluentMethods": true,
    "clientRootFolder": "antriancoresvc",
    "relationships": [],
    "fields": [
        {
            "fieldName": "lokasi",
            "fieldType": "String"
        },
        {
            "fieldName": "username",
            "fieldType": "String"
        },
        {
            "fieldName": "passwordKiosk",
            "fieldType": "String"
        },
        {
            "fieldName": "deskripsi",
            "fieldType": "String"
        },
        {
            "fieldName": "status",
            "fieldType": "String",
            "fieldValidateRules": [
                "maxlength"
            ],
            "fieldValidateRulesMaxlength": "3"
        },
        {
            "fieldName": "createUserId",
            "fieldType": "Long"
        },
        {
            "fieldName": "createDate",
            "fieldType": "LocalDate"
        },
        {
            "fieldName": "createDateTime",
            "fieldType": "ZonedDateTime"
        },
        {
            "fieldName": "lastModificationUserId",
            "fieldType": "Long"
        },
        {
            "fieldName": "lastModificationDate",
            "fieldType": "LocalDate"
        },
        {
            "fieldName": "lastModificationDateTime",
            "fieldType": "ZonedDateTime"
        }
    ],
    "changelogDate": "20200326034115",
    "dto": "mapstruct",
    "searchEngine": false,
    "service": "serviceImpl",
    "entityTableName": "kiosk",
    "databaseType": "sql",
    "readOnly": false,
    "jpaMetamodelFiltering": false,
    "pagination": "pagination",
    "microserviceName": "antriancoresvc"
}
