{
    "fluentMethods": true,
    "clientRootFolder": "antriancoresvc",
    "relationships": [],
    "fields": [
        {
            "fieldName": "namaBadanUsaha",
            "fieldType": "String"
        },
        {
            "fieldName": "namaDireksi",
            "fieldType": "String"
        },
        {
            "fieldName": "email",
            "fieldType": "String"
        },
        {
            "fieldName": "tanggalPengambilan",
            "fieldType": "LocalDate"
        },
        {
            "fieldName": "kodeKonfirmasi",
            "fieldType": "String"
        },
        {
            "fieldName": "idKloter",
            "fieldType": "Long"
        },
        {
            "fieldName": "pengambilanStruk",
            "fieldType": "Boolean"
        },
        {
            "fieldName": "jamKloter",
            "fieldType": "String"
        },
        {
            "fieldName": "pertanyaan",
            "fieldType": "byte[]",
            "fieldTypeBlobContent": "text"
        },
        {
            "fieldName": "jawaban",
            "fieldType": "byte[]",
            "fieldTypeBlobContent": "text"
        },
        {
            "fieldName": "tipeKtp",
            "fieldType": "String"
        },
        {
            "fieldName": "statusTiket",
            "fieldType": "String"
        },
        {
            "fieldName": "typeVirtual",
            "fieldType": "Boolean"
        },
        {
            "fieldName": "jamLayanan",
            "fieldType": "String"
        },
        {
            "fieldName": "noTiket",
            "fieldType": "String"
        },
        {
            "fieldName": "agent",
            "fieldType": "Boolean"
        },
        {
            "fieldName": "idDaftar",
            "fieldType": "UUID"
        },
        {
            "fieldName": "namaPerseorangan",
            "fieldType": "String"
        },
        {
            "fieldName": "instansi",
            "fieldType": "String"
        },
        {
            "fieldName": "unit",
            "fieldType": "String"
        },
        {
            "fieldName": "jabatan",
            "fieldType": "String"
        },
        {
            "fieldName": "namaPejabat",
            "fieldType": "String"
        },
        {
            "fieldName": "untukLayanan",
            "fieldType": "String"
        },
        {
            "fieldName": "jwtToken",
            "fieldType": "byte[]",
            "fieldTypeBlobContent": "text"
        },
        {
            "fieldName": "nik",
            "fieldType": "String"
        },
        {
            "fieldName": "flagBanned",
            "fieldType": "Long"
        },
        {
            "fieldName": "idSubLayanan",
            "fieldType": "Long"
        },
        {
            "fieldName": "jenisKendala",
            "fieldType": "String"
        },
        {
            "fieldName": "createDate",
            "fieldType": "LocalDate"
        }
    ],
    "changelogDate": "20210809231615",
    "dto": "mapstruct",
    "searchEngine": false,
    "service": "serviceImpl",
    "entityTableName": "pendaftaran_dumy",
    "databaseType": "sql",
    "readOnly": false,
    "jpaMetamodelFiltering": true,
    "pagination": "pagination",
    "microserviceName": "antriancoresvc"
}
